…
(Actually I very much like that the join takes the columns as a vector, as it is much easier to program over.) I feel the `qc()` grouping of the columns makes it easier for a reader to see which arguments are the column set than a use of `...` would. Please take, as an example, the following `dplyr::group_by()`:

``` r
library(dplyr)

starwars %>%
  group_by(homeworld, species, add = FALSE) %>%
  summarize(mass = mean(mass, na.rm = TRUE))
```

    ## # A tibble: 58 x 3
    ## # Groups:   homeworld [?]
    ##    homeworld      species    mass
    ##    <chr>          <chr>     <dbl>
    ##  1 Alderaan       Human      64  
    ##  2 Aleen Minor    Aleena     15  
    ##  3 Bespin         Human      79  
    ##  4 Bestine IV     Human     110  
    ##  5 Cato Neimoidia Neimodian  90  
    ##  6 Cerea          Cerean     82  
    ##  7 Champala       Chagrian  NaN  
    ##  8 Chandrila      Human     NaN  
    ##  9 Concord Dawn   Human      79  
    ## 10 Corellia       Human      78.5
    ## # ... with 48 more rows

When coming back to such code later, I find the following notation to be easier to read:

``` r
library(seplyr)

starwars %>%
  group_by_se(qc(homeworld, species), add = FALSE) %>%
  summarize(mass = mean(mass, na.rm = TRUE))
```

    ## # A tibble: 58 x 3
    ## # Groups:   homeworld [?]
    ##    homeworld      species    mass
    ##    <chr>          <chr>     <dbl>
    ##  1 Alderaan       Human      64  
    ##  2 Aleen Minor    Aleena     15  
    ##  3 Bespin         Human      79  
    ##  4 Bestine IV     Human     110  
    ##  5 Cato Neimoidia Neimodian  90  
    ##  6 Cerea          Cerean     82  
    ##  7 Champala       Chagrian  NaN  
    ##  8 Chandrila      Human     NaN  
    ##  9 Concord Dawn   Human      79  
    ## 10 Corellia       Human      78.5
    ## # ... with 48 more rows
…
